PROGRAMACIÃ“N Y DATA SCIENCE CON R - INTERMEDIO
…
Residual standard error: 24020 on 75 degrees of freedom
Multiple R-squared:  0.7284,    Adjusted R-squared:  0.7175 
F-statistic: 67.05 on 3 and 75 DF,  p-value: < 2.2e-16

RegresiÃ³n lineal mÃºltiple - Con variables categÃ³ricas

Entendiendo la InteracciÃ³n

## Grid para predicciones
grid <- data_venta_publicidad %>% 
  data_grid(PUBLICIDAD_TOTAL, USA_FAMOSO) %>% 
  gather_predictions(mod_cat_2, mod_cat_3)
grid

# A tibble: 128 x 4
       model PUBLICIDAD_TOTAL USA_FAMOSO      pred
       <chr>            <dbl>      <chr>     <dbl>
 1 mod_cat_2              500         NO  89417.06
 2 mod_cat_2              500         SI  89997.06
 3 mod_cat_2              550         NO  92897.60
 4 mod_cat_2              550         SI  93477.61
 5 mod_cat_2              650         NO  99858.70
 6 mod_cat_2              650         SI 100438.70
 7 mod_cat_2              700         NO 103339.24
 8 mod_cat_2              700         SI 103919.25
 9 mod_cat_2              750         NO 106819.79
10 mod_cat_2              750         SI 107399.79
# ... with 118 more rows
…
