…
Data Banco
========================================================
class: small-code



```r
data_banco
```

```
# A tibble: 24,299 x 9
   ID_Sucursal Cajero ID_Transaccion              Transaccion
         <chr>  <chr>          <dbl>                    <chr>
 1          62   4820              2 Cobro/Pago (Cta externa)
 2          62   4820              2 Cobro/Pago (Cta externa)
 3          62   4820              2 Cobro/Pago (Cta externa)
 4          62   4820              2 Cobro/Pago (Cta externa)
 5          62   4820              2 Cobro/Pago (Cta externa)
 6          62   4820              2 Cobro/Pago (Cta externa)
 7          62   4820              2 Cobro/Pago (Cta externa)
 8          62   4820              2 Cobro/Pago (Cta externa)
 9          62   4820              2 Cobro/Pago (Cta externa)
10          62   4820              2 Cobro/Pago (Cta externa)
# ... with 24,289 more rows, and 5 more variables:
#   Tiempo_Servicio_seg <dbl>, Satisfaccion <fctr>, Monto <dbl>,
#   Sucursal <chr>, Nuevo_Sistema <chr>
```
…
