…
tibbles (un dataframe mejorado): 			
========================================================
class: small-code
Tibble es un objeto del paquete dplyr, entre las mejoras que da es que no imprime todo el objeto en pantalla, sino un resumen del mismo.


```r
# Convertir el data_banco a un tibble
data_banco <- tbl_df( data_banco) 
# Muestra data_banco
data_banco
```

```
# A tibble: 24,299 x 7
   Sucursal Cajero ID_Transaccion              Transaccion
 *    <chr>  <chr>          <dbl>                    <chr>
 1       62   4820              2 Cobro/Pago (Cta externa)
 2       62   4820              2 Cobro/Pago (Cta externa)
 3       62   4820              2 Cobro/Pago (Cta externa)
 4       62   4820              2 Cobro/Pago (Cta externa)
 5       62   4820              2 Cobro/Pago (Cta externa)
 6       62   4820              2 Cobro/Pago (Cta externa)
 7       62   4820              2 Cobro/Pago (Cta externa)
 8       62   4820              2 Cobro/Pago (Cta externa)
 9       62   4820              2 Cobro/Pago (Cta externa)
10       62   4820              2 Cobro/Pago (Cta externa)
# ... with 24,289 more rows, and 3 more variables:
#   Tiempo_Servicio_seg <dbl>, Satisfaccion <chr>, Monto <dbl>
```

Seleccionar columnas: 	select()
========================================================
class: small-code

Seleccionar las columnas Transaccion, Tiempo_Servicio_seg del data.frame data_banco

```r
# Seleccionar las columnas Transaccion, Tiempo_Servicio_seg del data.frame data_banco
# Note que como no se asignó, R evalúa la expresión y presenta el resultado
select( data_banco, Transaccion, Tiempo_Servicio_seg) 
```

```
# A tibble: 24,299 x 2
                Transaccion Tiempo_Servicio_seg
 *                    <chr>               <dbl>
 1 Cobro/Pago (Cta externa)                 311
 2 Cobro/Pago (Cta externa)                 156
 3 Cobro/Pago (Cta externa)                 248
 4 Cobro/Pago (Cta externa)                  99
 5 Cobro/Pago (Cta externa)                 123
 6 Cobro/Pago (Cta externa)                 172
 7 Cobro/Pago (Cta externa)                 140
 8 Cobro/Pago (Cta externa)                 247
 9 Cobro/Pago (Cta externa)                 183
10 Cobro/Pago (Cta externa)                  91
# ... with 24,289 more rows
```
…
Seleccionar columnas: 	select()
========================================================
class: small-code
Seleccionar las columnas Transaccion, Tiempo_Servicio_seg del data.frame data_banco pero usando `%>%`, lo que permite programar como si se escribiese "del data_banco, selecciona las columnas Transaccion y Tiempo_Servicio_seg"


```r
# Seleccionar las columnas Transaccion, Tiempo_Servicio_seg del data.frame data_banco
# Note que como no se asignó, R evalúa la expresión y presenta el resultado
# Se lee, del data_banco, selecciona las columnas Transaccion y Tiempo_Servicio_seg
data_banco %>% select( Transaccion, Tiempo_Servicio_seg) 
```

```
# A tibble: 24,299 x 2
                Transaccion Tiempo_Servicio_seg
 *                    <chr>               <dbl>
 1 Cobro/Pago (Cta externa)                 311
 2 Cobro/Pago (Cta externa)                 156
 3 Cobro/Pago (Cta externa)                 248
 4 Cobro/Pago (Cta externa)                  99
 5 Cobro/Pago (Cta externa)                 123
 6 Cobro/Pago (Cta externa)                 172
 7 Cobro/Pago (Cta externa)                 140
 8 Cobro/Pago (Cta externa)                 247
 9 Cobro/Pago (Cta externa)                 183
10 Cobro/Pago (Cta externa)                  91
# ... with 24,289 more rows
```
…
Crear o modificar columnas/variables  		mutate()
========================================================
Crear una nueva columna con el tiempo en minutos


```r
# Crear una nueva columna con el tiempo en minutos
data_banco %>% mutate(Tiempo_Servicio_Min= Tiempo_Servicio_seg/60)
```

```
# A tibble: 24,299 x 8
   Sucursal Cajero ID_Transaccion              Transaccion
      <chr>  <chr>          <dbl>                    <chr>
 1       62   4820              2 Cobro/Pago (Cta externa)
 2       62   4820              2 Cobro/Pago (Cta externa)
 3       62   4820              2 Cobro/Pago (Cta externa)
 4       62   4820              2 Cobro/Pago (Cta externa)
 5       62   4820              2 Cobro/Pago (Cta externa)
 6       62   4820              2 Cobro/Pago (Cta externa)
 7       62   4820              2 Cobro/Pago (Cta externa)
 8       62   4820              2 Cobro/Pago (Cta externa)
 9       62   4820              2 Cobro/Pago (Cta externa)
10       62   4820              2 Cobro/Pago (Cta externa)
# ... with 24,289 more rows, and 4 more variables:
#   Tiempo_Servicio_seg <dbl>, Satisfaccion <chr>, Monto <dbl>,
#   Tiempo_Servicio_Min <dbl>
```


Crear o modificar columnas/variables  		mutate()
========================================================
Crear una nueva columna con el tiempo en minutos


```r
# Crear una nueva columna con el tiempo en minutos
data_banco %>% mutate(Tiempo_Servicio_Min= Tiempo_Servicio_seg/60)
```

```
# A tibble: 24,299 x 8
   Sucursal Cajero ID_Transaccion              Transaccion
      <chr>  <chr>          <dbl>                    <chr>
 1       62   4820              2 Cobro/Pago (Cta externa)
 2       62   4820              2 Cobro/Pago (Cta externa)
 3       62   4820              2 Cobro/Pago (Cta externa)
 4       62   4820              2 Cobro/Pago (Cta externa)
 5       62   4820              2 Cobro/Pago (Cta externa)
 6       62   4820              2 Cobro/Pago (Cta externa)
 7       62   4820              2 Cobro/Pago (Cta externa)
 8       62   4820              2 Cobro/Pago (Cta externa)
 9       62   4820              2 Cobro/Pago (Cta externa)
10       62   4820              2 Cobro/Pago (Cta externa)
# ... with 24,289 more rows, and 4 more variables:
#   Tiempo_Servicio_seg <dbl>, Satisfaccion <chr>, Monto <dbl>,
#   Tiempo_Servicio_Min <dbl>
```
…
```r
# Crear una nueva columna con el tiempo en minutos
data_banco <- data_banco %>%
  mutate(Tiempo_Servicio_Min= Tiempo_Servicio_seg/60)
# Mostrar
data_banco
```

```
# A tibble: 24,299 x 8
   Sucursal Cajero ID_Transaccion              Transaccion
      <chr>  <chr>          <dbl>                    <chr>
 1       62   4820              2 Cobro/Pago (Cta externa)
 2       62   4820              2 Cobro/Pago (Cta externa)
 3       62   4820              2 Cobro/Pago (Cta externa)
 4       62   4820              2 Cobro/Pago (Cta externa)
 5       62   4820              2 Cobro/Pago (Cta externa)
 6       62   4820              2 Cobro/Pago (Cta externa)
 7       62   4820              2 Cobro/Pago (Cta externa)
 8       62   4820              2 Cobro/Pago (Cta externa)
 9       62   4820              2 Cobro/Pago (Cta externa)
10       62   4820              2 Cobro/Pago (Cta externa)
# ... with 24,289 more rows, and 4 more variables:
#   Tiempo_Servicio_seg <dbl>, Satisfaccion <chr>, Monto <dbl>,
#   Tiempo_Servicio_Min <dbl>
```


Nuevas columnas transmute()
========================================================
class: small-code
Para conservar sólamente las nuevas columnas se usa  transmute()

```r
# Crear una nueva columna con el tiempo en minutos
data_banco %>%
  transmute(Tiempo_Servicio_Min= Tiempo_Servicio_seg/60)
```

```
# A tibble: 24,299 x 1
   Tiempo_Servicio_Min
                 <dbl>
 1            5.183333
 2            2.600000
 3            4.133333
 4            1.650000
 5            2.050000
 6            2.866667
 7            2.333333
 8            4.116667
 9            3.050000
10            1.516667
# ... with 24,289 more rows
```
…
Funciones para rangos de filas
========================================================
Ramking mensual de productos más vendidos por almacén


```r
df_1 %>%
  arrange(ALMACEN, PERIODO) %>%
  group_by(ALMACEN, PERIODO) %>%
  mutate(Prod_rank = min_rank(desc(VTA)))
```

```
# A tibble: 360 x 8
# Groups:   ALMACEN, PERIODO [60]
        ALMACEN PRODUCTO    PERIODO      VTA    MARGEN     PPTO VTA_COSTO
          <chr>    <chr>     <date>    <dbl>     <dbl>    <dbl>     <dbl>
 1 Mall del Sol   Prod_A 2015-01-01 2725.465 0.2362004 3353.988 2081.7091
 2 Mall del Sol   Prod_B 2015-01-01 5729.831 0.3757911 2031.621 3576.6113
 3 Mall del Sol   Prod_C 2015-01-01 3453.862 0.2790210 2917.853 2490.1617
 4 Mall del Sol   Prod_D 2015-01-01 6298.104 0.2480692 3481.330 4735.7385
 5 Mall del Sol   Prod_E 2015-01-01 6642.804 0.2858232 5556.014 4744.1361
 6 Mall del Sol   Prod_F 2015-01-01 1273.339 0.2881694 2631.341  906.4016
 7 Mall del Sol   Prod_A 2015-02-01 5065.424 0.3056750 1692.024 3517.0503
 8 Mall del Sol   Prod_B 2015-02-01 4435.800 0.2462782 1776.498 3343.3595
 9 Mall del Sol   Prod_C 2015-02-01 1617.548 0.2213519 5432.491 1259.5007
10 Mall del Sol   Prod_D 2015-02-01 6398.950 0.4198328 5542.591 3712.4608
# ... with 350 more rows, and 1 more variables: Prod_rank <int>
```

Funciones para rangos de filas
========================================================
Porcentaje de venta menor a la venta del producto, para cada almacén y mes


```r
df_1 %>%
  arrange(ALMACEN, PERIODO) %>%
  group_by(ALMACEN, PERIODO) %>%
  mutate(Porc = percent_rank(VTA))
```

```
# A tibble: 360 x 8
# Groups:   ALMACEN, PERIODO [60]
        ALMACEN PRODUCTO    PERIODO      VTA    MARGEN     PPTO VTA_COSTO
          <chr>    <chr>     <date>    <dbl>     <dbl>    <dbl>     <dbl>
 1 Mall del Sol   Prod_A 2015-01-01 2725.465 0.2362004 3353.988 2081.7091
 2 Mall del Sol   Prod_B 2015-01-01 5729.831 0.3757911 2031.621 3576.6113
 3 Mall del Sol   Prod_C 2015-01-01 3453.862 0.2790210 2917.853 2490.1617
 4 Mall del Sol   Prod_D 2015-01-01 6298.104 0.2480692 3481.330 4735.7385
 5 Mall del Sol   Prod_E 2015-01-01 6642.804 0.2858232 5556.014 4744.1361
 6 Mall del Sol   Prod_F 2015-01-01 1273.339 0.2881694 2631.341  906.4016
 7 Mall del Sol   Prod_A 2015-02-01 5065.424 0.3056750 1692.024 3517.0503
 8 Mall del Sol   Prod_B 2015-02-01 4435.800 0.2462782 1776.498 3343.3595
 9 Mall del Sol   Prod_C 2015-02-01 1617.548 0.2213519 5432.491 1259.5007
10 Mall del Sol   Prod_D 2015-02-01 6398.950 0.4198328 5542.591 3712.4608
# ... with 350 more rows, and 1 more variables: Porc <dbl>
```

Funciones para rangos de filas
========================================================
Para el almacén y producto, la venta acumulada a cada cierre de mes empezando desde enero 


```r
df_1 %>%
  arrange(ALMACEN, PRODUCTO, PERIODO) %>%
  group_by(ALMACEN, PRODUCTO, ANIO=lubridate::year(PERIODO)) %>%
  mutate(VTA_ACUM = cumsum(VTA)) 
```

```
# A tibble: 360 x 9
# Groups:   ALMACEN, PRODUCTO, ANIO [36]
        ALMACEN PRODUCTO    PERIODO      VTA    MARGEN     PPTO VTA_COSTO
          <chr>    <chr>     <date>    <dbl>     <dbl>    <dbl>     <dbl>
 1 Mall del Sol   Prod_A 2015-01-01 2725.465 0.2362004 3353.988 2081.7091
 2 Mall del Sol   Prod_A 2015-02-01 5065.424 0.3056750 1692.024 3517.0503
 3 Mall del Sol   Prod_A 2015-03-01 4934.235 0.2751396 6199.922 3576.6314
 4 Mall del Sol   Prod_A 2015-04-01 5550.757 0.2735302 3530.861 4032.4575
 5 Mall del Sol   Prod_A 2015-05-01 2595.836 0.3530790 1706.622 1679.3006
 6 Mall del Sol   Prod_A 2015-06-01 4990.691 0.2526827 5990.742 3729.6299
 7 Mall del Sol   Prod_A 2015-07-01 5261.094 0.2793650 5497.643 3791.3289
 8 Mall del Sol   Prod_A 2015-08-01 1617.188 0.4375847 1712.142  909.5311
 9 Mall del Sol   Prod_A 2015-09-01 5693.766 0.3104882 5320.303 3925.9189
10 Mall del Sol   Prod_A 2015-10-01 3464.139 0.2868570 5157.482 2470.4263
# ... with 350 more rows, and 2 more variables: ANIO <dbl>, VTA_ACUM <dbl>
```
…
Ejemplo: Venta de empresa retail
========================================================
class: small-code
Vamos a armar la estructura de datos típica en los análisis de empresas de retail


```r
df_1
```

```
# A tibble: 360 x 7
        ALMACEN PRODUCTO    PERIODO      VTA    MARGEN     PPTO VTA_COSTO
          <chr>    <chr>     <date>    <dbl>     <dbl>    <dbl>     <dbl>
 1 Mall del Sol   Prod_A 2015-01-01 2725.465 0.2362004 3353.988 2081.7091
 2 Mall del Sol   Prod_B 2015-01-01 5729.831 0.3757911 2031.621 3576.6113
 3 Mall del Sol   Prod_C 2015-01-01 3453.862 0.2790210 2917.853 2490.1617
 4 Mall del Sol   Prod_D 2015-01-01 6298.104 0.2480692 3481.330 4735.7385
 5 Mall del Sol   Prod_E 2015-01-01 6642.804 0.2858232 5556.014 4744.1361
 6 Mall del Sol   Prod_F 2015-01-01 1273.339 0.2881694 2631.341  906.4016
 7    Riocentro   Prod_A 2015-01-01 4168.633 0.3665952 1693.495 2640.4320
 8    Riocentro   Prod_B 2015-01-01 6354.514 0.3050842 1176.020 4415.8521
 9    Riocentro   Prod_C 2015-01-01 4308.610 0.3452432 5841.132 2821.0916
10    Riocentro   Prod_D 2015-01-01 3739.688 0.2700425 3880.759 2729.8137
# ... with 350 more rows
```
…
